…
# 1.3

After using the lag() function to compute lifeExp_change, a new variable in my tibble that is the change in life expectancy, I filtered the gapminder data to all entries that experienced a drop in life expectancy.


```
## # A tibble: 102 x 7
## # Groups:   country [142]
##    country         continent  year lifeExp       pop gdpPercap lifeExp_change
##    <fct>           <fct>     <int>   <dbl>     <int>     <dbl>          <dbl>
##  1 China           Asia       1962    44.5 665770000      488.        -6.05  
##  2 Cambodia        Asia       1972    40.3   7450606      422.        -5.10  
##  3 Czech Republic  Europe     1972    70.3   9862158    13108.        -0.0900
##  4 Netherlands     Europe     1972    73.8  13329874    18795.        -0.0700
##  5 Slovak Republic Europe     1972    70.4   4593433     9674.        -0.63  
##  6 Bulgaria        Europe     1977    70.8   8797022     7612.        -0.09  
##  7 Cambodia        Asia       1977    31.2   6978607      525.        -9.10  
##  8 El Salvador     Americas   1977    56.7   4282586     5139.        -1.51  
##  9 Poland          Europe     1977    70.7  34621254     9508.        -0.180 
## 10 Uganda          Africa     1977    50.4  11457758      844.        -0.666 
## # ... with 92 more rows
```

# 1.4

Using the max() function, I filtered the gapminder data to show the maximum GDP per capita experienced by each country.


```
## # A tibble: 142 x 6
## # Groups:   country [142]
##    country     continent  year lifeExp       pop gdpPercap
##    <fct>       <fct>     <int>   <dbl>     <int>     <dbl>
##  1 Afghanistan Asia       1982    39.9  12881816      978.
##  2 Albania     Europe     2007    76.4   3600523     5937.
##  3 Algeria     Africa     2007    72.3  33333216     6223.
##  4 Angola      Africa     1967    36.0   5247469     5523.
##  5 Argentina   Americas   2007    75.3  40301927    12779.
##  6 Australia   Oceania    2007    81.2  20434176    34435.
##  7 Austria     Europe     2007    79.8   8199783    36126.
##  8 Bahrain     Asia       2007    75.6    708573    29796.
##  9 Bangladesh  Asia       2007    64.1 150448339     1391.
## 10 Belgium     Europe     2007    79.4  10392226    33693.
## # ... with 132 more rows
```
…
```
## # A tibble: 142 x 4
##    country          mu   med sigma
##    <fct>         <dbl> <dbl> <dbl>
##  1 Sierra Leone   36.8  37.6  3.94
##  2 Guinea-Bissau  39.2  38.4  4.94
##  3 Afghanistan    37.5  39.1  5.10
##  4 Angola         37.9  39.7  4.01
##  5 Somalia        41.0  41.5  4.50
##  6 Guinea         43.2  41.8  7.74
##  7 Niger          44.6  41.9  6.51
##  8 Mozambique     40.4  42.3  4.60
##  9 Liberia        42.5  42.4  2.42
## 10 Mali           43.4  42.8  6.81
## # ... with 132 more rows
```
…
