…
<!-- The following chunk allows errors when knitting -->



# 8.3 Writing Data to Disk


```r
(gap_asia_2007 <- gapminder %>% filter(year == 2007, continent == "Asia"))
```

```
## # A tibble: 33 x 6
##    country          continent  year lifeExp        pop gdpPercap
##    <fct>            <fct>     <int>   <dbl>      <int>     <dbl>
##  1 Afghanistan      Asia       2007    43.8   31889923      975.
##  2 Bahrain          Asia       2007    75.6     708573    29796.
##  3 Bangladesh       Asia       2007    64.1  150448339     1391.
##  4 Cambodia         Asia       2007    59.7   14131858     1714.
##  5 China            Asia       2007    73.0 1318683096     4959.
##  6 Hong Kong, China Asia       2007    82.2    6980412    39725.
##  7 India            Asia       2007    64.7 1110396331     2452.
##  8 Indonesia        Asia       2007    70.6  223547000     3541.
##  9 Iran             Asia       2007    71.0   69453570    11606.
## 10 Iraq             Asia       2007    59.5   27499638     4471.
## # ... with 23 more rows
```
…
```
## Parsed with column specification:
## cols(
##   Magazine = col_character(),
##   AdRevenue = col_double(),
##   AdPages = col_double(),
##   SubRevenue = col_double(),
##   NewsRevenue = col_double()
## )
```

```
## # A tibble: 204 x 5
##    Magazine                             AdRevenue AdPages SubRevenue NewsRevenue
##    <chr>                                    <dbl>   <dbl>      <dbl>       <dbl>
##  1 Weekly World News                         2280    300         854       16568
##  2 National Examiner                         3382    380         968       27215
##  3 J-14                                      4218    250        2206       12453
##  4 Soap Opera Weekly                         4622    439        5555       24282
##  5 Easyriders                                5121    524.       4155        9929
##  6 Mary Engelbreit's Home Companion          5259    189        9048        4363
##  7 Official Xbox Magazine                    5838    542.       4311       10320
##  8 Weight Watchers                           6986    287.       9202        4048
##  9 Globe                                     7634    380        2180       63771
## 10 PSM: 100% Independent PlayStation 2~      8034    720.       6846        5271
## # ... with 194 more rows
```
…
# mode = "wb" is very important on Windows

xls_url <- "http://gattonweb.uky.edu/sheather/book/docs/datasets/GreatestGivers.xls"
download.file(xls_url, here::here("data", "s008_data", "some_file.xls"), mode = "wb")

# Extract and import

file_name <- basename(xls_url)
download.file(xls_url, here::here("data", "s008_data", file_name), mode = "wb")
read_excel(here::here("data", "s008_data", file_name))
```

```
## # A tibble: 50 x 8
##    Rank  Name  Background `2003-07 Given ~ Causes `Estimated lift~ `Net Worth`
##    <chr> <chr> <chr>      <chr>            <chr>             <dbl> <chr>      
##  1 1     Warr~ Berkshire~  40,650          Healt~            40780 52000      
##  2 2     Bill~ Microsoft~  3,519           Globa~            28144 59000      
##  3 3     Geor~ Oil and g~  2,271           Pover~             2522 11000      
##  4 4     Geor~ Investor    2,109           Open ~             6401 8800       
##  5 5     Gord~ Intel co-~  2,067           Envir~             7404 4500       
##  6 6     Walt~ Family of~  1,475           Educa~             2015 82500      
##  7 7     Herb~ Golden We~  1,368           Medic~             1389 2400       
##  8 8     Eli ~ SunAmeric~  1,216           Publi~             2286 7000       
##  9 9     Dona~ Real esta~  915             Educa~             1326 13000      
## 10 10    Jon ~ Huntsman ~  800             Cance~             1233 1900       
## # ... with 40 more rows, and 1 more variable: `Giving%` <chr>
```
…
