…
```r
n <- 100
tibble(label = "Sample A",
             x = rnorm(n),
             y = x + sd(x))
```

```
## # A tibble: 100 x 3
##    label          x      y
##    <chr>      <dbl>  <dbl>
##  1 Sample A  0.628   1.48 
##  2 Sample A -1.09   -0.236
##  3 Sample A -2.39   -1.53 
##  4 Sample A -1.79   -0.939
##  5 Sample A -0.0203  0.832
##  6 Sample A  0.0891  0.941
##  7 Sample A  1.15    2.00 
##  8 Sample A -0.644   0.208
##  9 Sample A -0.146   0.706
## 10 Sample A -2.56   -1.71 
## # ... with 90 more rows
```
…
```r
n <- 100
mu <- c(-5, 0, 5)
sd <- c(1, 3, 10)
tibble(mu = mu, sd = sd) %>% 
  group_by_all() %>% 
  mutate(z = list(rnorm(n, mu, sd))) %>%
  unnest(z)
```

```
## # A tibble: 300 x 3
## # Groups:   mu, sd [3]
##       mu    sd     z
##    <dbl> <dbl> <dbl>
##  1    -5     1 -5.89
##  2    -5     1 -6.01
##  3    -5     1 -4.02
##  4    -5     1 -4.78
##  5    -5     1 -6.65
##  6    -5     1 -4.94
##  7    -5     1 -4.65
##  8    -5     1 -5.34
##  9    -5     1 -3.59
## 10    -5     1 -3.65
## # ... with 290 more rows
```
…
