…
# 4.6.1 Activity: Build Some Plots!
## Exercise 2: `ggplot2` Syntax (Your Turn)

The following is a tsibble (a special type of tibble containing time series data, which we'll see more of later), stored in the variable `mauna`, of CO$_2$ concentrations collected monthly at the Mauna Loa station.

Execute this code to store the data in `mauna`:


```r
(mauna <- tsibble::as_tsibble(co2) %>% 
   rename(month = index, conc = value))
```

```
## # A tsibble: 468 x 2 [1M]
##       month  conc
##       <mth> <dbl>
##  1 1959 Jan  315.
##  2 1959 Feb  316.
##  3 1959 Mar  316.
##  4 1959 Apr  318.
##  5 1959 May  318.
##  6 1959 Jun  318 
##  7 1959 Jul  316.
##  8 1959 Aug  315.
##  9 1959 Sep  314.
## 10 1959 Oct  313.
## # ... with 458 more rows
```
…
