…
2. Go ahead and add the corresponding albums to the `time` tibble, being sure to preserve rows even if album info is not readily available.


```r
time %>% 
  left_join(album, by = "song") %>%
  select(song, album, everything())
```

```
## # A tibble: 22 x 6
##    song            album            artist_name.x   year artist_name.y city     
##    <chr>           <chr>            <chr>          <dbl> <chr>         <chr>    
##  1 Corduroy        <NA>             Pearl Jam       1994 <NA>          <NA>     
##  2 Grievance       Binaural         Pearl Jam       2000 Pearl Jam     Seattle,~
##  3 Stupidmop       Vitalogy         Pearl Jam       1994 Pearl Jam     Seattle,~
##  4 Present Tense   No Code          Pearl Jam       1996 Pearl Jam     Seattle,~
##  5 MFC             Live On Two Legs Pearl Jam       1998 Pearl Jam     Seattle,~
##  6 Lukin           Seattle Washing~ Pearl Jam       1996 Pearl Jam     Seattle,~
##  7 It's Lulu       Best Of          The Boo Radle~  1995 The Boo Radl~ Liverpoo~
##  8 Sparrow         Everything's Al~ The Boo Radle~  1992 The Boo Radl~ Liverpoo~
##  9 Martin_ Doom! ~ <NA>             The Boo Radle~  1995 <NA>          <NA>     
## 10 Leaves And Sand <NA>             The Boo Radle~  1993 <NA>          <NA>     
## # ... with 12 more rows
```
…
5. You've come across these two tibbles, and just wish all the info was available in one tibble. What would you do?


```r
time %>%
  full_join(album, by = c("song", "artist_name"))
```

```
## # A tibble: 23 x 5
##    song                  artist_name     year city         album                
##    <chr>                 <chr>          <dbl> <chr>        <chr>                
##  1 Corduroy              Pearl Jam       1994 <NA>         <NA>                 
##  2 Grievance             Pearl Jam       2000 Seattle, WA  Binaural             
##  3 Stupidmop             Pearl Jam       1994 Seattle, WA  Vitalogy             
##  4 Present Tense         Pearl Jam       1996 Seattle, WA  No Code              
##  5 MFC                   Pearl Jam       1998 Seattle, WA  Live On Two Legs     
##  6 Lukin                 Pearl Jam       1996 Seattle, WA  Seattle Washington N~
##  7 It's Lulu             The Boo Radle~  1995 Liverpool, ~ Best Of              
##  8 Sparrow               The Boo Radle~  1992 Liverpool, ~ Everything's Alright~
##  9 Martin_ Doom! It's S~ The Boo Radle~  1995 <NA>         <NA>                 
## 10 Leaves And Sand       The Boo Radle~  1993 <NA>         <NA>                 
## # ... with 13 more rows
```

```r
time %>% 
  full_join(album, by = intersect(names(time), names(album)))
```

```
## # A tibble: 23 x 5
##    song                  artist_name     year city         album                
##    <chr>                 <chr>          <dbl> <chr>        <chr>                
##  1 Corduroy              Pearl Jam       1994 <NA>         <NA>                 
##  2 Grievance             Pearl Jam       2000 Seattle, WA  Binaural             
##  3 Stupidmop             Pearl Jam       1994 Seattle, WA  Vitalogy             
##  4 Present Tense         Pearl Jam       1996 Seattle, WA  No Code              
##  5 MFC                   Pearl Jam       1998 Seattle, WA  Live On Two Legs     
##  6 Lukin                 Pearl Jam       1996 Seattle, WA  Seattle Washington N~
##  7 It's Lulu             The Boo Radle~  1995 Liverpool, ~ Best Of              
##  8 Sparrow               The Boo Radle~  1992 Liverpool, ~ Everything's Alright~
##  9 Martin_ Doom! It's S~ The Boo Radle~  1995 <NA>         <NA>                 
## 10 Leaves And Sand       The Boo Radle~  1993 <NA>         <NA>                 
## # ... with 13 more rows
```
…
